[es.wix.com/website-template/view/html/1762d523.html]
[backblue.gif]
[fade.gif]
[index.html]
[static.parastorage.com/unpkg/@sentry/browser@5.27.4/build/bundle.min.js]
[static.parastorage.com/polyfill/v3/polyfill.minb292.js]
[static.parastorage.com/services/third-party/fonts/Helvetica/fontFace.css]
[static.parastorage.com/unpkg/@wix/wix-fonts@1.14.0/madefor.min.css]
[static.parastorage.com/unpkg/@wix/wix-fonts@1.14.0/madeforDisplay.min.css]
[static.parastorage.com/services/marketing-template-viewer/1.1831.0/app.min.css]
[static.parastorage.com/services/cookie-sync-service/1.282.0/embed-cidx.bundle.min.js]
[es.wix.com/website-template/view/html/1762.html]
[static.parastorage.com/services/tag-manager-client/1.427.0/hostTags.bundle.min.js]
[static.parastorage.com/unpkg/react@16.14.0/umd/react.production.min.js]
[static.parastorage.com/services/cookie-consent-policy-client/1.573.0/app.bundle.min.js]
[es.wix.com/website-template/view/html/1762d523.html]
[static.parastorage.com/unpkg/react-dom@16.14.0/umd/react-dom.production.min.js]
[static.parastorage.com/services/dealer-lightbox/2.0.223/dealer-lightbox.bundle.min.js]
[static.parastorage.com/services/third-party/fonts/Helvetica/Fonts/b7693a83-b861-4aa6-85e0-9ecf676bc4d6d41d.eot]
[static.parastorage.com/services/marketing-template-viewer/1.1831.0/app.bundle.min.js]
[static.parastorage.com/services/third-party/fonts/Helvetica/Fonts/bcf54343-d033-41ee-bbd7-2b77df3fe7ba.woff]
[static.parastorage.com/services/third-party/fonts/Helvetica/Fonts/b0ffdcf0-26da-47fd-8485-20e4a40d4b7d.ttf]
[static.parastorage.com/services/third-party/fonts/Helvetica/Fonts/da09f1f1-062a-45af-86e1-2bbdb3dd94f9.svg]
[static.parastorage.com/services/third-party/fonts/Helvetica/Fonts/56be84de-9d60-4089-8df0-0ea6ec786b84d41d.eot]
[static.parastorage.com/services/third-party/fonts/Helvetica/Fonts/50d35bbc-dfd4-48f1-af16-cf058f69421d.woff]
[static.parastorage.com/services/third-party/fonts/Helvetica/Fonts/278bef59-6be1-4800-b5ac-1f769ab47430.ttf]
[static.parastorage.com/services/third-party/fonts/Helvetica/Fonts/2e309b1b-08b8-477f-bc9e-7067cf0af0b3.svg]
[static.parastorage.com/services/third-party/fonts/Helvetica/Fonts/07fe0fec-b63f-4963-8ee1-535528b67fdbd145.eot]
[static.parastorage.com/services/third-party/fonts/Helvetica/Fonts/60be5c39-863e-40cb-9434-6ebafb62ab2b.woff]
[static.parastorage.com/services/third-party/fonts/Helvetica/Fonts/4c6503c9-859b-4d3b-a1d5-2d42e1222415.ttf]
[static.parastorage.com/services/third-party/fonts/Helvetica/Fonts/36c182c6-ef98-4021-9b0d-d63122c2bbf5.svg]
[static.parastorage.com/services/third-party/fonts/Helvetica/Fonts/072d8516-5d40-44bc-b694-65b3c8bd8fa5d41d.eot]
[static.parastorage.com/services/third-party/fonts/Helvetica/Fonts/723fd1ed-5aad-454d-af88-3711c5caf1c7.woff]
[static.parastorage.com/services/third-party/fonts/Helvetica/Fonts/2a81d94e-d365-4f5f-9957-7e96414d6a72.ttf]
[static.parastorage.com/services/third-party/fonts/Helvetica/Fonts/6be38bc3-96b3-47e3-a9ef-e1a184b54d64.svg]
[static.parastorage.com/services/third-party/fonts/Helvetica/Fonts/58a5cbff-d570-4c18-a5e3-60868dc07ae8d41d.eot]
[static.parastorage.com/services/third-party/fonts/Helvetica/Fonts/2c056da8-4920-4e20-8c69-8a6b315458a9.woff]
[static.parastorage.com/services/third-party/fonts/Helvetica/Fonts/2381d918-136d-444f-8391-db0cba6da388.ttf]
[static.parastorage.com/services/third-party/fonts/Helvetica/Fonts/d0697971-6f58-4597-942e-8beabd1adc87.svg]
[static.parastorage.com/services/third-party/fonts/Helvetica/Fonts/88fcd49a-13c7-4d0c-86b1-ad1e258bd75dd41d.eot]
[static.parastorage.com/services/third-party/fonts/Helvetica/Fonts/9a2e4855-380f-477f-950e-d98e8db54eac.woff]
[static.parastorage.com/services/third-party/fonts/Helvetica/Fonts/fa82d0ee-4fbd-4cc9-bf9f-226ad1fcbae2.ttf]
[static.parastorage.com/services/third-party/fonts/Helvetica/Fonts/48d599a6-92b5-4d43-a4ac-8959f6971853.svg]
[static.parastorage.com/services/third-party/fonts/Helvetica/Fonts/db853e0e-929b-4272-b420-c946c954cf3ad41d.eot]
[static.parastorage.com/services/third-party/fonts/Helvetica/Fonts/4a9c62ab-b359-4081-8383-a0d1cdebd111.woff]
[static.parastorage.com/services/third-party/fonts/Helvetica/Fonts/db5f9ba6-05a4-433a-9461-0a6f257a0c3a.ttf]
[static.parastorage.com/services/third-party/fonts/Helvetica/Fonts/25e09910-ffc3-4fc4-b0d1-db9a95dface8.svg]
[static.parastorage.com/services/third-party/fonts/Helvetica/Fonts/c8ec8ade-129c-47df-86b4-f9f1cd69ac15d41d.eot]
[static.parastorage.com/services/third-party/fonts/Helvetica/Fonts/6d5b06b3-f8db-4de6-aa46-2a6de9569b51.woff]
[static.parastorage.com/services/third-party/fonts/Helvetica/Fonts/86438896-04f9-4558-a21a-e7a6d6061591.ttf]
[static.parastorage.com/services/third-party/fonts/Helvetica/Fonts/c486d95f-f220-435d-8a83-5d9497f04c49.svg]
[static.parastorage.com/services/third-party/fonts/Helvetica/Fonts/41774233-b9da-44be-b252-6a7b612fb1c7d41d.eot]
[static.parastorage.com/services/third-party/fonts/Helvetica/Fonts/4bff1fbb-b4bf-4d95-9c47-efcb14384e36.woff]
[static.parastorage.com/services/third-party/fonts/Helvetica/Fonts/7f1f2a7d-3837-4c93-b373-f03c5da3f9a1.ttf]
[static.parastorage.com/services/third-party/fonts/Helvetica/Fonts/d9f2752a-8d82-4cf1-b82f-109c1105be7f.svg]
[static.parastorage.com/services/third-party/fonts/Helvetica/Fonts/787ee748-9cce-45a0-910b-6b5c6e87e327d41d.eot]
[static.parastorage.com/services/third-party/fonts/Helvetica/Fonts/84558c76-9f1b-44d2-ac62-d7937f43809b.woff]
[static.parastorage.com/services/third-party/fonts/Helvetica/Fonts/411a88fe-e483-4fb8-af42-8369ebb1138d.ttf]
[static.parastorage.com/services/third-party/fonts/Helvetica/Fonts/6dfe33a4-0ad5-4c85-8e01-f48ecfe3c167.svg]
[static.parastorage.com/services/third-party/fonts/Helvetica/Fonts/30b6ffc3-3b64-40dd-9ff8-a3a850daf535d41d.eot]
[static.parastorage.com/services/third-party/fonts/Helvetica/Fonts/775a65da-14aa-4634-be95-6724c05fd522.woff]
[static.parastorage.com/services/third-party/fonts/Helvetica/Fonts/988eaaa7-5565-4f65-bb17-146b650ce9e9.ttf]
[static.parastorage.com/services/third-party/fonts/Helvetica/Fonts/3503a1a6-91c3-4c42-8e66-2ea7b2b57541.svg]
[static.parastorage.com/services/third-party/fonts/Helvetica/Fonts/ae1656aa-5f8f-4905-aed0-93e667bd6e4ad41d.eot]
[static.parastorage.com/services/third-party/fonts/Helvetica/Fonts/530dee22-e3c1-4e9f-bf62-c31d510d9656.woff]
[static.parastorage.com/services/third-party/fonts/Helvetica/Fonts/688ab72b-4deb-4e15-a088-89166978d469.ttf]
[static.parastorage.com/services/third-party/fonts/Helvetica/Fonts/7816f72f-f47e-4715-8cd7-960e3723846a.svg]
[static.parastorage.com/services/third-party/fonts/Helvetica/Fonts/07fe0fec-b63f-4963-8ee1-535528b67fdbd41d.eot]
[static.parastorage.com/services/third-party/fonts/Helvetica/Fonts/c07fef9e-a934-42d7-92ad-69205f2b8a00d41d.eot]
[static.parastorage.com/services/third-party/fonts/Helvetica/Fonts/14ff6081-326d-4dae-b778-d7afa66166fc.woff]
[static.parastorage.com/services/third-party/fonts/Helvetica/Fonts/8fda1e47-19be-46c7-8d83-8d4fb35572f0.ttf]
[static.parastorage.com/services/third-party/fonts/Helvetica/Fonts/f751c8ae-1057-46d9-8d74-62592e002568.svg]
[static.parastorage.com/services/third-party/fonts/Helvetica/Fonts/b26ccb58-f2e3-47aa-a83a-02861bf54862d41d.eot]
[static.parastorage.com/services/third-party/fonts/Helvetica/Fonts/74649485-cd74-443e-9d54-331ccd448900.woff]
[static.parastorage.com/services/third-party/fonts/Helvetica/Fonts/feb77f4f-9e6b-4f88-909a-66199fd402ed.ttf]
[static.parastorage.com/services/third-party/fonts/Helvetica/Fonts/2e490192-e531-4236-9c55-90daaad4a34e.svg]
[static.parastorage.com/services/third-party/fonts/Helvetica/Fonts/0b3a3fca-0fad-402b-bd38-fdcbad1ef776d41d.eot]
[static.parastorage.com/services/third-party/fonts/Helvetica/Fonts/d5af76d8-a90b-4527-b3a3-182207cc3250.woff]
[static.parastorage.com/services/third-party/fonts/Helvetica/Fonts/1d238354-d156-4dde-89ea-4770ef04b9f9.ttf]
[static.parastorage.com/services/third-party/fonts/Helvetica/Fonts/b68875cb-14a9-472e-8177-0247605124d7.svg]
[static.parastorage.com/services/third-party/fonts/Helvetica/Fonts/55f60419-09c3-42bd-b81f-1983ff093852d41d.eot]
[static.parastorage.com/services/third-party/fonts/Helvetica/Fonts/5b4a262e-3342-44e2-8ad7-719998a68134.woff]
[static.parastorage.com/services/third-party/fonts/Helvetica/Fonts/4a3ef5d8-cfd9-4b96-bd67-90215512f1e5.ttf]
[static.parastorage.com/services/third-party/fonts/Helvetica/Fonts/58ab5075-53ea-46e6-9783-cbb335665f88.svg]
[static.parastorage.com/services/third-party/fonts/Helvetica/Fonts/5b85c7cc-6ad4-4226-83f5-9d19e2974123d41d.eot]
[static.parastorage.com/services/third-party/fonts/Helvetica/Fonts/835e7b4f-b524-4374-b57b-9a8fc555fd4e.woff]
[static.parastorage.com/services/third-party/fonts/Helvetica/Fonts/2c694ef6-9615-473e-8cf4-d8d00c6bd973.ttf]
[static.parastorage.com/services/third-party/fonts/Helvetica/Fonts/3fc84193-a13f-4fe8-87f7-238748a4ac54.svg]
[static.parastorage.com/services/third-party/fonts/Helvetica/Fonts/7092fdcc-7036-48ce-ae23-cfbc9be2e3b0d41d.eot]
[static.parastorage.com/services/third-party/fonts/Helvetica/Fonts/5b29e833-1b7a-40ab-82a5-cfd69c8650f4.woff]
[static.parastorage.com/services/third-party/fonts/Helvetica/Fonts/b0298148-2d59-44d1-9ec9-1ca6bb097603.ttf]
[static.parastorage.com/services/third-party/fonts/Helvetica/Fonts/ae1dea8c-a953-4845-b616-74a257ba72e6.svg]
[static.parastorage.com/services/third-party/fonts/Helvetica/Fonts/41fb73ed-90c8-456d-838e-254f4dfda106d41d.eot]
[static.parastorage.com/services/third-party/fonts/Helvetica/Fonts/d85949a1-c37a-43f7-9d09-fb056acf0c27.woff]
[static.parastorage.com/services/third-party/fonts/Helvetica/Fonts/5289fb0d-053f-4fac-9c67-2d02365d6d05.ttf]
[static.parastorage.com/services/third-party/fonts/Helvetica/Fonts/1376b116-8954-4534-8045-eabe8e2fcaa4.svg]
[static.parastorage.com/services/third-party/fonts/Helvetica/Fonts/35f91c73-f2f1-4dd3-83ee-3649dc7ff4edd41d.eot]
[static.parastorage.com/services/third-party/fonts/Helvetica/Fonts/b1d7b778-bdf9-4ff3-b4e8-8cdabf234863.woff]
[static.parastorage.com/services/third-party/fonts/Helvetica/Fonts/27bdcc15-be32-4f6c-a7df-12494376e947.ttf]
[static.parastorage.com/services/third-party/fonts/Helvetica/Fonts/3af50121-f334-4e73-b155-b105e0029509.svg]
[static.parastorage.com/services/third-party/fonts/Helvetica/Fonts/93b6bf6a-418e-4a8f-8f79-cb9c99ef3e32d41d.eot]
[static.parastorage.com/services/third-party/fonts/Helvetica/Fonts/c881c21b-4148-4a11-a65d-f35e42999bc8.woff]
[static.parastorage.com/services/third-party/fonts/Helvetica/Fonts/03634cf1-a9c9-4e13-b049-c90d830423d4.ttf]
[static.parastorage.com/services/third-party/fonts/Helvetica/Fonts/1bc99c0a-298b-46f9-b325-18b5e5169795.svg]
[static.parastorage.com/services/third-party/fonts/Helvetica/Fonts/f1feaed7-6bce-400a-a07e-a893ae43a680d41d.eot]
[static.parastorage.com/services/third-party/fonts/Helvetica/Fonts/8ac9e38d-29c6-41ea-8e47-4ae4d2b1a4e1.woff]
[static.parastorage.com/services/third-party/fonts/Helvetica/Fonts/4bd09087-655e-4abb-844c-dccdeb68003d.ttf]
[static.parastorage.com/services/third-party/fonts/Helvetica/fontFace.css]
[static.parastorage.com/services/third-party/fonts/Helvetica/Fonts/df234d87-eada-4058-aa80-5871e7fbe1c3.svg]
[static.parastorage.com/unpkg/@wix/wix-fonts@1.14.0/media/WixMadeforTextVF_W_Wght.8022447a.woff2]
[static.parastorage.com/unpkg/@wix/wix-fonts@1.14.0/media/WixMadeforTextItalicVF_W_Wght.54ac8fe3.woff2]
[static.parastorage.com/unpkg/@wix/wix-fonts@1.14.0/media/WixMadeforText_W_Rg.5a5798be.woff2]
[static.parastorage.com/unpkg/@wix/wix-fonts@1.14.0/media/WixMadeforText_W_Rg.1a0ca11a.woff]
[static.parastorage.com/unpkg/@wix/wix-fonts@1.14.0/media/WixMadeforText_Rg.c16c286e.ttf]
[static.parastorage.com/unpkg/@wix/wix-fonts@1.14.0/media/WixMadeforText_W_Rg_It.12f3cd9d.woff2]
[static.parastorage.com/unpkg/@wix/wix-fonts@1.14.0/media/WixMadeforText_W_Rg_It.8e17780b.woff]
[static.parastorage.com/unpkg/@wix/wix-fonts@1.14.0/media/WixMadeforText_It.b0a86715.ttf]
[static.parastorage.com/unpkg/@wix/wix-fonts@1.14.0/media/WixMadeforText_W_Bd.9d07f9d7.woff2]
[static.parastorage.com/unpkg/@wix/wix-fonts@1.14.0/media/WixMadeforText_W_Bd.1b77caba.woff]
[static.parastorage.com/unpkg/@wix/wix-fonts@1.14.0/media/WixMadeforText_Bd.d27ace57.ttf]
[static.parastorage.com/unpkg/@wix/wix-fonts@1.14.0/media/WixMadeforText_W_Bd_It.31766fc9.woff2]
[static.parastorage.com/unpkg/@wix/wix-fonts@1.14.0/media/WixMadeforText_W_Bd_It.95574030.woff]
[static.parastorage.com/unpkg/@wix/wix-fonts@1.14.0/media/WixMadeforText_BdIt.9aa62c7d.ttf]
[static.parastorage.com/unpkg/@wix/wix-fonts@1.14.0/media/WixMadeforText_W_XBd.bcb42c9a.woff2]
[static.parastorage.com/unpkg/@wix/wix-fonts@1.14.0/media/WixMadeforText_W_XBd.068dbf77.woff]
[static.parastorage.com/unpkg/@wix/wix-fonts@1.14.0/media/WixMadeforText_XBd.9182eef9.ttf]
[static.parastorage.com/unpkg/@wix/wix-fonts@1.14.0/media/WixMadeforText_W_XBd_It.9d580e0e.woff2]
[static.parastorage.com/unpkg/@wix/wix-fonts@1.14.0/media/WixMadeforText_W_XBd_It.631cda9a.woff]
[static.parastorage.com/unpkg/@wix/wix-fonts@1.14.0/madefor.min.css]
[static.parastorage.com/unpkg/@wix/wix-fonts@1.14.0/media/WixMadeforText_XBdIt.e5d9e9bc.ttf]
[static.parastorage.com/unpkg/@wix/wix-fonts@1.14.0/media/WixMadeforDisplayVF_W_Wght.ab35e4df.woff2]
[static.parastorage.com/unpkg/@wix/wix-fonts@1.14.0/media/WixMadeforDisplay_W_Rg.ff9d13f7.woff2]
[static.parastorage.com/unpkg/@wix/wix-fonts@1.14.0/media/WixMadeforDisplay_W_Rg.ad2de8e2.woff]
[static.parastorage.com/unpkg/@wix/wix-fonts@1.14.0/media/WixMadeforDisplay_Rg.494c353a.ttf]
[static.parastorage.com/unpkg/@wix/wix-fonts@1.14.0/media/WixMadeforDisplay_W_Bd.ef7750b0.woff2]
[static.parastorage.com/unpkg/@wix/wix-fonts@1.14.0/media/WixMadeforDisplay_W_Bd.19d33326.woff]
[static.parastorage.com/unpkg/@wix/wix-fonts@1.14.0/media/WixMadeforDisplay_Bd.2f194651.ttf]
[static.parastorage.com/unpkg/@wix/wix-fonts@1.14.0/media/WixMadeforDisplay_W_XBd.2d185bee.woff2]
[static.parastorage.com/unpkg/@wix/wix-fonts@1.14.0/media/WixMadeforDisplay_W_XBd.a106949f.woff]
[static.parastorage.com/unpkg/@wix/wix-fonts@1.14.0/madeforDisplay.min.css]
[static.parastorage.com/services/marketing-template-viewer/1.1831.0/app.min.css]
[es.wix.com/website-template/view/html/1762.html]
[static.parastorage.com/unpkg/@wix/wix-fonts@1.14.0/media/WixMadeforDisplay_XBd.bc872c83.ttf]
[static.parastorage.com/services/third-party/fonts/Helvetica/Fonts/da09f1f1-062a-45af-86e1-2bbdb3dd94f9.svg]
[static.parastorage.com/services/third-party/fonts/Helvetica/Fonts/2e309b1b-08b8-477f-bc9e-7067cf0af0b3.svg]
[static.parastorage.com/services/third-party/fonts/Helvetica/Fonts/36c182c6-ef98-4021-9b0d-d63122c2bbf5.svg]
[static.parastorage.com/services/third-party/fonts/Helvetica/Fonts/6be38bc3-96b3-47e3-a9ef-e1a184b54d64.svg]
[static.parastorage.com/services/third-party/fonts/Helvetica/Fonts/2c056da8-4920-4e20-8c69-8a6b315458a9.woff]
[static.parastorage.com/services/third-party/fonts/Helvetica/Fonts/2381d918-136d-444f-8391-db0cba6da388.ttf]
[static.parastorage.com/services/third-party/fonts/Helvetica/Fonts/d0697971-6f58-4597-942e-8beabd1adc87.svg]
[static.parastorage.com/services/third-party/fonts/Helvetica/Fonts/48d599a6-92b5-4d43-a4ac-8959f6971853.svg]
[static.parastorage.com/services/third-party/fonts/Helvetica/Fonts/25e09910-ffc3-4fc4-b0d1-db9a95dface8.svg]
[static.parastorage.com/services/third-party/fonts/Helvetica/Fonts/c486d95f-f220-435d-8a83-5d9497f04c49.svg]
[static.parastorage.com/services/third-party/fonts/Helvetica/Fonts/d9f2752a-8d82-4cf1-b82f-109c1105be7f.svg]
[static.parastorage.com/services/third-party/fonts/Helvetica/Fonts/6dfe33a4-0ad5-4c85-8e01-f48ecfe3c167.svg]
[static.parastorage.com/services/third-party/fonts/Helvetica/Fonts/3503a1a6-91c3-4c42-8e66-2ea7b2b57541.svg]
[static.parastorage.com/services/third-party/fonts/Helvetica/Fonts/7816f72f-f47e-4715-8cd7-960e3723846a.svg]
[static.parastorage.com/services/third-party/fonts/Helvetica/Fonts/f751c8ae-1057-46d9-8d74-62592e002568.svg]
[static.parastorage.com/services/third-party/fonts/Helvetica/Fonts/2e490192-e531-4236-9c55-90daaad4a34e.svg]
[static.parastorage.com/services/third-party/fonts/Helvetica/Fonts/b68875cb-14a9-472e-8177-0247605124d7.svg]
[static.parastorage.com/services/third-party/fonts/Helvetica/Fonts/58ab5075-53ea-46e6-9783-cbb335665f88.svg]
[static.parastorage.com/services/third-party/fonts/Helvetica/Fonts/3fc84193-a13f-4fe8-87f7-238748a4ac54.svg]
[static.parastorage.com/services/third-party/fonts/Helvetica/Fonts/ae1dea8c-a953-4845-b616-74a257ba72e6.svg]
[static.parastorage.com/services/third-party/fonts/Helvetica/Fonts/1376b116-8954-4534-8045-eabe8e2fcaa4.svg]
[static.parastorage.com/services/third-party/fonts/Helvetica/Fonts/3af50121-f334-4e73-b155-b105e0029509.svg]
[static.parastorage.com/services/third-party/fonts/Helvetica/Fonts/1bc99c0a-298b-46f9-b325-18b5e5169795.svg]
[static.parastorage.com/services/third-party/fonts/Helvetica/Fonts/df234d87-eada-4058-aa80-5871e7fbe1c3.svg]
